{
  "/api/v1/*": {
    "target": "http://localhost:5000",
    "secure": false,
    "logLevel": "debug",
    "changeOrigin": true
  },
  "/swagger/*": {
    "target": "http://localhost:5000",
    "secure": false,
    "logLevel": "debug",
    "changeOrigin": true
  },
  "/pipeline": {
    "target": "http://localhost:5000",
    "secure": false,
    "ws": true,
    "logLevel": "debug",
    "changeOrigin": true
  }
}
